[
    {
        "player1": "Harry",
        "player2": "Chris",
        "scoreline": "11-6"
    },
    {
        "player1": "Harry",
        "player2": "Matt",
        "scoreline": "11-9"
    },
    {
        "player1": "Matt",
        "player2": "Chris",
        "scoreline": "11-2"
    },
    {
        "player1": "Harry",
        "player2": "Chris",
        "scoreline": "11-9"
    },
    {
        "player1": "Harry",
        "player2": "Matt",
        "scoreline": "10-12"
    },
    {
        "player1": "Matt",
        "player2": "Chris",
        "scoreline": "8-11"
    },
    {
        "player1": "Harry",
        "player2": "Chris",
        "scoreline": "7-11"
    }
]